{
    "swagger": "2.0",
    "info": {
        "contact": {}
    },
    "paths": {
        "/v1/book-soon/": {
            "get": {
                "security": [
                    {
                        "ApiKeyAuth": []
                    }
                ],
                "description": "Get all soon books",
                "consumes": [
                    "application/json"
                ],
                "produces": [
                    "application/json"
                ],
                "tags": [
                    "book"
                ],
                "summary": "Get all soon books",
                "parameters": [
                    {
                        "type": "string",
                        "description": "Page",
                        "name": "page",
                        "in": "query"
                    },
                    {
                        "type": "string",
                        "description": "Limit",
                        "name": "limit",
                        "in": "query"
                    }
                ],
                "responses": {
                    "200": {
                        "description": "OK",
                        "schema": {
                            "$ref": "#/definitions/models.GetAllBooksModel"
                        }
                    },
                    "404": {
                        "description": "Not Found",
                        "schema": {
                            "$ref": "#/definitions/models.StandardErrorModel"
                        }
                    },
                    "500": {
                        "description": "Internal Server Error",
                        "schema": {
                            "$ref": "#/definitions/models.StandardErrorModel"
                        }
                    }
                }
            }
        },
        "/v1/book/": {
            "get": {
                "security": [
                    {
                        "ApiKeyAuth": []
                    }
                ],
                "description": "Get all books",
                "consumes": [
                    "application/json"
                ],
                "produces": [
                    "application/json"
                ],
                "tags": [
                    "book"
                ],
                "summary": "Get all books",
                "parameters": [
                    {
                        "type": "string",
                        "description": "Page",
                        "name": "page",
                        "in": "query"
                    },
                    {
                        "type": "string",
                        "description": "Limit",
                        "name": "limit",
                        "in": "query"
                    }
                ],
                "responses": {
                    "200": {
                        "description": "OK",
                        "schema": {
                            "$ref": "#/definitions/models.GetAllBooksModel"
                        }
                    },
                    "404": {
                        "description": "Not Found",
                        "schema": {
                            "$ref": "#/definitions/models.StandardErrorModel"
                        }
                    },
                    "500": {
                        "description": "Internal Server Error",
                        "schema": {
                            "$ref": "#/definitions/models.StandardErrorModel"
                        }
                    }
                }
            }
        },
        "/v1/book/{genre_id}/": {
            "get": {
                "security": [
                    {
                        "ApiKeyAuth": []
                    }
                ],
                "description": "Get all books by genre",
                "consumes": [
                    "application/json"
                ],
                "produces": [
                    "application/json"
                ],
                "tags": [
                    "book"
                ],
                "summary": "Get all books by genre",
                "parameters": [
                    {
                        "type": "string",
                        "description": "Page",
                        "name": "page",
                        "in": "query"
                    },
                    {
                        "type": "string",
                        "description": "Limit",
                        "name": "limit",
                        "in": "query"
                    },
                    {
                        "type": "integer",
                        "description": "Genre ID",
                        "name": "genre_id",
                        "in": "path",
                        "required": true
                    }
                ],
                "responses": {
                    "200": {
                        "description": "OK",
                        "schema": {
                            "$ref": "#/definitions/models.GetAllBooksModel"
                        }
                    },
                    "404": {
                        "description": "Not Found",
                        "schema": {
                            "$ref": "#/definitions/models.StandardErrorModel"
                        }
                    },
                    "500": {
                        "description": "Internal Server Error",
                        "schema": {
                            "$ref": "#/definitions/models.StandardErrorModel"
                        }
                    }
                }
            }
        },
        "/v1/genres/": {
            "get": {
                "security": [
                    {
                        "ApiKeyAuth": []
                    }
                ],
                "description": "Get all genres",
                "consumes": [
                    "application/json"
                ],
                "produces": [
                    "application/json"
                ],
                "tags": [
                    "book"
                ],
                "summary": "Get all genres",
                "parameters": [
                    {
                        "type": "string",
                        "description": "Page",
                        "name": "page",
                        "in": "query"
                    },
                    {
                        "type": "string",
                        "description": "Limit",
                        "name": "limit",
                        "in": "query"
                    }
                ],
                "responses": {
                    "200": {
                        "description": "OK",
                        "schema": {
                            "$ref": "#/definitions/models.GetGenresModel"
                        }
                    },
                    "404": {
                        "description": "Not Found",
                        "schema": {
                            "$ref": "#/definitions/models.StandardErrorModel"
                        }
                    },
                    "500": {
                        "description": "Internal Server Error",
                        "schema": {
                            "$ref": "#/definitions/models.StandardErrorModel"
                        }
                    }
                }
            }
        },
        "/v1/get_tokens/": {
            "post": {
                "description": "Get Tokens API is for getting new tokens\nif old one is expired",
                "consumes": [
                    "application/json"
                ],
                "produces": [
                    "application/json"
                ],
                "tags": [
                    "login"
                ],
                "summary": "Get Tokens",
                "parameters": [
                    {
                        "description": "get tokens",
                        "name": "get_tokens",
                        "in": "body",
                        "required": true,
                        "schema": {
                            "$ref": "#/definitions/models.GetNewTokensModel"
                        }
                    }
                ],
                "responses": {
                    "200": {
                        "description": "OK",
                        "schema": {
                            "type": "array",
                            "items": {
                                "$ref": "#/definitions/models.GetNewTokensResponse"
                            }
                        }
                    },
                    "404": {
                        "description": "Not Found",
                        "schema": {
                            "$ref": "#/definitions/models.StandardErrorModel"
                        }
                    },
                    "500": {
                        "description": "Internal Server Error",
                        "schema": {
                            "$ref": "#/definitions/models.StandardErrorModel"
                        }
                    }
                }
            }
        },
        "/v1/leaders/": {
            "get": {
                "security": [
                    {
                        "ApiKeyAuth": []
                    }
                ],
                "description": "Get all leaders",
                "consumes": [
                    "application/json"
                ],
                "produces": [
                    "application/json"
                ],
                "tags": [
                    "user"
                ],
                "summary": "Get all leaders",
                "parameters": [
                    {
                        "type": "string",
                        "description": "Page",
                        "name": "page",
                        "in": "query"
                    },
                    {
                        "type": "string",
                        "description": "Limit",
                        "name": "limit",
                        "in": "query"
                    }
                ],
                "responses": {
                    "200": {
                        "description": "OK",
                        "schema": {
                            "$ref": "#/definitions/models.GetLeadersListModel"
                        }
                    },
                    "404": {
                        "description": "Not Found",
                        "schema": {
                            "$ref": "#/definitions/models.StandardErrorModel"
                        }
                    },
                    "500": {
                        "description": "Internal Server Error",
                        "schema": {
                            "$ref": "#/definitions/models.StandardErrorModel"
                        }
                    }
                }
            }
        },
        "/v1/login/": {
            "post": {
                "description": "Login API is for signing in to app\nIt also refreshes both tokens",
                "consumes": [
                    "application/json"
                ],
                "produces": [
                    "application/json"
                ],
                "tags": [
                    "login"
                ],
                "summary": "Login",
                "parameters": [
                    {
                        "description": "login",
                        "name": "login",
                        "in": "body",
                        "required": true,
                        "schema": {
                            "$ref": "#/definitions/models.LoginModel"
                        }
                    }
                ],
                "responses": {
                    "200": {
                        "description": "login response",
                        "schema": {
                            "$ref": "#/definitions/models.LoginResponseModel"
                        }
                    },
                    "400": {
                        "description": "Bad Request",
                        "schema": {
                            "$ref": "#/definitions/models.StandardErrorModel"
                        }
                    },
                    "500": {
                        "description": "Internal Server Error",
                        "schema": {
                            "$ref": "#/definitions/models.StandardErrorModel"
                        }
                    }
                }
            }
        },
        "/v1/logout/": {
            "put": {
                "security": [
                    {
                        "ApiKeyAuth": []
                    }
                ],
                "description": "Logout API is for deleting fcm token from db",
                "produces": [
                    "application/json"
                ],
                "tags": [
                    "login"
                ],
                "summary": "Logout",
                "responses": {
                    "200": {
                        "description": ""
                    },
                    "400": {
                        "description": "Bad Request",
                        "schema": {
                            "$ref": "#/definitions/models.StandardErrorModel"
                        }
                    },
                    "500": {
                        "description": "Internal Server Error",
                        "schema": {
                            "$ref": "#/definitions/models.StandardErrorModel"
                        }
                    }
                }
            }
        },
        "/v1/questions/{book_id}/": {
            "get": {
                "security": [
                    {
                        "ApiKeyAuth": []
                    }
                ],
                "consumes": [
                    "application/json"
                ],
                "produces": [
                    "application/json"
                ],
                "tags": [
                    "book"
                ],
                "parameters": [
                    {
                        "type": "string",
                        "description": "Book ID",
                        "name": "book_id",
                        "in": "path",
                        "required": true
                    }
                ],
                "responses": {
                    "200": {
                        "description": "OK",
                        "schema": {
                            "$ref": "#/definitions/models.ListQuestionsResp"
                        }
                    },
                    "400": {
                        "description": "Bad Request",
                        "schema": {
                            "$ref": "#/definitions/models.StandardErrorModel"
                        }
                    },
                    "403": {
                        "description": ""
                    },
                    "500": {
                        "description": "Internal Server Error",
                        "schema": {
                            "$ref": "#/definitions/models.StandardErrorModel"
                        }
                    }
                }
            }
        },
        "/v1/register/": {
            "post": {
                "description": "Register - API for registering users",
                "consumes": [
                    "application/json"
                ],
                "produces": [
                    "application/json"
                ],
                "tags": [
                    "register"
                ],
                "summary": "Register",
                "parameters": [
                    {
                        "description": "register",
                        "name": "register",
                        "in": "body",
                        "required": true,
                        "schema": {
                            "$ref": "#/definitions/models.UserDetail"
                        }
                    }
                ],
                "responses": {
                    "200": {
                        "description": "OK",
                        "schema": {
                            "$ref": "#/definitions/models.RegisterResModel"
                        }
                    },
                    "400": {
                        "description": "Bad Request",
                        "schema": {
                            "$ref": "#/definitions/models.StandardErrorModel"
                        }
                    },
                    "500": {
                        "description": "Internal Server Error",
                        "schema": {
                            "$ref": "#/definitions/models.StandardErrorModel"
                        }
                    }
                }
            }
        },
        "/v1/send-verification/": {
            "post": {
                "description": "Send Verification link - API for sending Verification to check email while resetting password",
                "consumes": [
                    "application/json"
                ],
                "produces": [
                    "application/json"
                ],
                "tags": [
                    "login"
                ],
                "summary": "Send Verification",
                "parameters": [
                    {
                        "description": "email",
                        "name": "email",
                        "in": "body",
                        "required": true,
                        "schema": {
                            "$ref": "#/definitions/models.Email"
                        }
                    }
                ],
                "responses": {
                    "200": {
                        "description": "OK",
                        "schema": {
                            "$ref": "#/definitions/models.SendCodeResponse"
                        }
                    },
                    "400": {
                        "description": "Bad Request",
                        "schema": {
                            "$ref": "#/definitions/models.StandardErrorModel"
                        }
                    },
                    "500": {
                        "description": "Internal Server Error",
                        "schema": {
                            "$ref": "#/definitions/models.StandardErrorModel"
                        }
                    }
                }
            }
        },
        "/v1/set-password/": {
            "post": {
                "security": [
                    {
                        "ApiKeyAuth": []
                    }
                ],
                "description": "Set Password - API for setting password",
                "consumes": [
                    "application/json"
                ],
                "produces": [
                    "application/json"
                ],
                "tags": [
                    "login"
                ],
                "summary": "SetPassword",
                "parameters": [
                    {
                        "description": "set password (new)",
                        "name": "set_password",
                        "in": "body",
                        "required": true,
                        "schema": {
                            "$ref": "#/definitions/models.SetPasswordNew"
                        }
                    }
                ],
                "responses": {
                    "200": {
                        "description": ""
                    },
                    "400": {
                        "description": "Bad Request",
                        "schema": {
                            "$ref": "#/definitions/models.StandardErrorModel"
                        }
                    },
                    "500": {
                        "description": "Internal Server Error",
                        "schema": {
                            "$ref": "#/definitions/models.StandardErrorModel"
                        }
                    }
                }
            }
        },
        "/v1/set-total-score/": {
            "put": {
                "security": [
                    {
                        "ApiKeyAuth": []
                    }
                ],
                "description": "this API updates total score of the user",
                "consumes": [
                    "application/json"
                ],
                "produces": [
                    "application/json"
                ],
                "tags": [
                    "user"
                ],
                "summary": "Update total score",
                "parameters": [
                    {
                        "description": "total score",
                        "name": "delete",
                        "in": "body",
                        "required": true,
                        "schema": {
                            "$ref": "#/definitions/models.SetTotalScore"
                        }
                    }
                ],
                "responses": {
                    "200": {
                        "description": "OK",
                        "schema": {
                            "$ref": "#/definitions/models.SuccessMessage"
                        }
                    },
                    "404": {
                        "description": "Not Found",
                        "schema": {
                            "$ref": "#/definitions/models.StandardErrorModel"
                        }
                    },
                    "500": {
                        "description": "Internal Server Error",
                        "schema": {
                            "$ref": "#/definitions/models.StandardErrorModel"
                        }
                    }
                }
            }
        },
        "/v1/total-score/": {
            "get": {
                "security": [
                    {
                        "ApiKeyAuth": []
                    }
                ],
                "consumes": [
                    "application/json"
                ],
                "produces": [
                    "application/json"
                ],
                "tags": [
                    "user"
                ],
                "responses": {
                    "200": {
                        "description": "OK",
                        "schema": {
                            "$ref": "#/definitions/models.GetTotalScore"
                        }
                    },
                    "500": {
                        "description": "Internal Server Error",
                        "schema": {
                            "$ref": "#/definitions/models.StandardErrorModel"
                        }
                    }
                }
            }
        },
        "/v1/users/{user_id}/profile/": {
            "get": {
                "security": [
                    {
                        "ApiKeyAuth": []
                    }
                ],
                "description": "Get Profile API returns a profile of a user",
                "consumes": [
                    "application/json"
                ],
                "produces": [
                    "application/json"
                ],
                "tags": [
                    "user"
                ],
                "summary": "Get Profile",
                "parameters": [
                    {
                        "type": "string",
                        "description": "User ID",
                        "name": "user_id",
                        "in": "path",
                        "required": true
                    }
                ],
                "responses": {
                    "200": {
                        "description": "OK",
                        "schema": {
                            "$ref": "#/definitions/models.GetProfileResponseModel"
                        }
                    },
                    "404": {
                        "description": "Not Found",
                        "schema": {
                            "$ref": "#/definitions/models.StandardErrorModel"
                        }
                    },
                    "500": {
                        "description": "Internal Server Error",
                        "schema": {
                            "$ref": "#/definitions/models.StandardErrorModel"
                        }
                    }
                }
            }
        },
        "/v1/verify/{email}/{code}/{type}/": {
            "get": {
                "description": "returns access token. type=signup/forgot/email_update",
                "consumes": [
                    "application/json"
                ],
                "produces": [
                    "application/json"
                ],
                "tags": [
                    "register"
                ],
                "summary": "Verify",
                "parameters": [
                    {
                        "type": "string",
                        "description": "email",
                        "name": "email",
                        "in": "path",
                        "required": true
                    },
                    {
                        "type": "string",
                        "description": "code",
                        "name": "code",
                        "in": "path",
                        "required": true
                    },
                    {
                        "type": "string",
                        "description": "signup/forgot/email_update",
                        "name": "type",
                        "in": "path",
                        "required": true
                    }
                ],
                "responses": {
                    "200": {
                        "description": "OK",
                        "schema": {
                            "$ref": "#/definitions/models.VerifyResModel"
                        }
                    },
                    "404": {
                        "description": "Not Found",
                        "schema": {
                            "$ref": "#/definitions/models.StandardErrorModel"
                        }
                    },
                    "500": {
                        "description": "Internal Server Error",
                        "schema": {
                            "$ref": "#/definitions/models.StandardErrorModel"
                        }
                    }
                }
            }
        }
    },
    "definitions": {
        "models.Book": {
            "type": "object",
            "properties": {
                "book_image": {
                    "type": "string"
                },
                "created_at": {
                    "type": "string"
                },
                "genre_id": {
                    "type": "string"
                },
                "id": {
                    "type": "string",
                    "example": "965b0929-82e1-4a53-ad0b-a16f50c99573"
                },
                "is_new": {
                    "type": "boolean"
                },
                "soon": {
                    "type": "string"
                },
                "title": {
                    "type": "string"
                },
                "updated_at": {
                    "type": "string"
                }
            }
        },
        "models.Email": {
            "type": "object",
            "properties": {
                "email": {
                    "type": "string"
                },
                "type": {
                    "type": "string"
                }
            }
        },
        "models.Error": {
            "type": "object",
            "properties": {
                "message": {
                    "type": "string"
                },
                "status": {
                    "type": "string"
                }
            }
        },
        "models.Genre": {
            "type": "object",
            "properties": {
                "code": {
                    "type": "string"
                },
                "id": {
                    "type": "integer"
                },
                "title": {
                    "type": "string"
                }
            }
        },
        "models.GetAllBooksModel": {
            "type": "object",
            "properties": {
                "books": {
                    "type": "array",
                    "items": {
                        "$ref": "#/definitions/models.Book"
                    }
                },
                "count": {
                    "type": "integer"
                }
            }
        },
        "models.GetGenresModel": {
            "type": "object",
            "properties": {
                "count": {
                    "type": "integer"
                },
                "genres": {
                    "type": "array",
                    "items": {
                        "$ref": "#/definitions/models.Genre"
                    }
                }
            }
        },
        "models.GetLeadersListModel": {
            "type": "object",
            "properties": {
                "count": {
                    "type": "integer"
                },
                "leaders": {
                    "type": "array",
                    "items": {
                        "$ref": "#/definitions/models.Leader"
                    }
                }
            }
        },
        "models.GetNewTokensModel": {
            "type": "object",
            "properties": {
                "id": {
                    "type": "string"
                },
                "refresh_token": {
                    "type": "string"
                }
            }
        },
        "models.GetNewTokensResponse": {
            "type": "object",
            "properties": {
                "access_token": {
                    "type": "string"
                },
                "refresh_token": {
                    "type": "string"
                }
            }
        },
        "models.GetProfileResponseModel": {
            "type": "object",
            "properties": {
                "first_name": {
                    "type": "string"
                },
                "id": {
                    "type": "string"
                },
                "last_name": {
                    "type": "string"
                },
                "profile_photo": {
                    "type": "string"
                },
                "rating": {
                    "type": "integer"
                },
                "total_score": {
                    "type": "integer"
                },
                "username": {
                    "type": "string"
                }
            }
        },
        "models.GetTotalScore": {
            "type": "object",
            "properties": {
                "total_score": {
                    "type": "integer"
                }
            }
        },
        "models.Leader": {
            "type": "object",
            "properties": {
                "first_name": {
                    "type": "string"
                },
                "id": {
                    "type": "string",
                    "example": "965b0929-82e1-4a53-ad0b-a16f50c99573"
                },
                "last_name": {
                    "type": "string"
                },
                "profile_photo": {
                    "type": "string"
                },
                "rating": {
                    "type": "integer"
                },
                "username": {
                    "type": "string"
                }
            }
        },
        "models.ListQuestionsResp": {
            "type": "object",
            "properties": {
                "count": {
                    "type": "integer"
                },
                "questions": {
                    "type": "array",
                    "items": {
                        "$ref": "#/definitions/models.Question"
                    }
                }
            }
        },
        "models.LoginModel": {
            "type": "object",
            "properties": {
                "email": {
                    "type": "string"
                },
                "fcm_token": {
                    "type": "string"
                },
                "password": {
                    "type": "string"
                }
            }
        },
        "models.LoginResponseModel": {
            "type": "object",
            "properties": {
                "access_token": {
                    "type": "string"
                },
                "email": {
                    "type": "string"
                },
                "first_name": {
                    "type": "string"
                },
                "id": {
                    "type": "string",
                    "example": "965b0929-82e1-4a53-ad0b-a16f50c99573"
                },
                "last_name": {
                    "type": "string"
                },
                "profile_photo": {
                    "type": "string"
                },
                "refresh_token": {
                    "type": "string"
                },
                "username": {
                    "type": "string"
                }
            }
        },
        "models.Question": {
            "type": "object",
            "properties": {
                "book_id": {
                    "type": "integer"
                },
                "id": {
                    "type": "integer"
                },
                "option_a": {
                    "type": "string"
                },
                "option_b": {
                    "type": "string"
                },
                "option_c": {
                    "type": "string"
                },
                "option_d": {
                    "type": "string"
                }
            }
        },
        "models.RegisterResModel": {
            "type": "object",
            "properties": {
                "result": {
                    "type": "string"
                }
            }
        },
        "models.SendCodeResponse": {
            "type": "object",
            "properties": {
                "id": {
                    "type": "string"
                }
            }
        },
        "models.SetPasswordNew": {
            "type": "object",
            "properties": {
                "new_password": {
                    "type": "string"
                }
            }
        },
        "models.SetTotalScore": {
            "type": "object",
            "properties": {
                "total_score": {
                    "type": "integer"
                }
            }
        },
        "models.StandardErrorModel": {
            "type": "object",
            "properties": {
                "error": {
                    "$ref": "#/definitions/models.Error"
                }
            }
        },
        "models.SuccessMessage": {
            "type": "object",
            "properties": {
                "message": {
                    "type": "string"
                }
            }
        },
        "models.UserDetail": {
            "type": "object",
            "properties": {
                "email": {
                    "type": "string"
                },
                "first_name": {
                    "type": "string"
                },
                "last_name": {
                    "type": "string"
                },
                "password": {
                    "type": "string"
                },
                "username": {
                    "type": "string"
                }
            }
        },
        "models.VerifyResModel": {
            "type": "object",
            "properties": {
                "access_token": {
                    "type": "string"
                },
                "id": {
                    "type": "string"
                },
                "refresh_token": {
                    "type": "string"
                }
            }
        }
    },
    "securityDefinitions": {
        "ApiKeyAuth": {
            "type": "apiKey",
            "name": "Authorization",
            "in": "header"
        }
    }
}